1 Data | R Programming for Data Sciences
…
> filter(gm, country %in% c("Brazil", "Mexico"))

# A tibble: 24 x 6
   country  year       pop continent lifeExp gdpPercap
   <fct>   <int>     <dbl> <fct>       <dbl>     <dbl>
 1 Brazil   1952  56602560 Americas     50.9     2109.
 2 Brazil   1957  65551171 Americas     53.3     2487.
 3 Brazil   1962  76039390 Americas     55.7     3337.
 4 Brazil   1967  88049823 Americas     57.6     3430.
 5 Brazil   1972 100840058 Americas     59.5     4986.
 6 Brazil   1977 114313951 Americas     61.5     6660.
 7 Brazil   1982 128962939 Americas     63.3     7031.
 8 Brazil   1987 142938076 Americas     65.2     7807.
 9 Brazil   1992 155975974 Americas     67.1     6950.
10 Brazil   1997 168546719 Americas     69.4     7958.
# … with 14 more rows

> filter(gm, country %in% c("Brazil", "Mexico") & year %in% c(1952, 1972))

# A tibble: 4 x 6
  country  year       pop continent lifeExp gdpPercap
  <fct>   <int>     <dbl> <fct>       <dbl>     <dbl>
1 Brazil   1952  56602560 Americas     50.9     2109.
2 Brazil   1972 100840058 Americas     59.5     4986.
3 Mexico   1952  30144317 Americas     50.8     3478.
4 Mexico   1972  55984294 Americas     62.4     6809.

> filter(gm, pop > 300000000)

# A tibble: 25 x 6
   country  year        pop continent lifeExp gdpPercap
   <fct>   <int>      <dbl> <fct>       <dbl>     <dbl>
 1 China    1952     5.56e8 Asia         44        400.
 2 China    1957     6.37e8 Asia         50.5      576.
 3 China    1962     6.66e8 Asia         44.5      488.
 4 China    1967     7.55e8 Asia         58.4      613.
 5 China    1972     8.62e8 Asia         63.1      677.
 6 China    1977     9.43e8 Asia         64.0      741.
 7 China    1982     1.00e9 Asia         65.5      962.
 8 China    1987     1.08e9 Asia         67.3     1379.
 9 China    1992     1.16e9 Asia         68.7     1656.
10 China    1997     1.23e9 Asia         70.4     2289.
# … with 15 more rows
…
Notice the full results are not printed. For example, when we asked for the data for Brazil and Mexico, only the first ten rows were printed. This is an effect of using the as_tibble() function. Of course if we wanted to analyze the results (as we will below) the full set of data would be available.

1.39.3 Selecting variables by column

Continuing with the gapminder data, another common task is to restrict attention to some subset of variables in the data set. The select() function does this.

> select(gm, country, year, lifeExp)

# A tibble: 1,704 x 3
   country      year lifeExp
   <fct>       <int>   <dbl>
 1 Afghanistan  1952    28.8
 2 Afghanistan  1957    30.3
 3 Afghanistan  1962    32.0
 4 Afghanistan  1967    34.0
 5 Afghanistan  1972    36.1
 6 Afghanistan  1977    38.4
 7 Afghanistan  1982    39.9
 8 Afghanistan  1987    40.8
 9 Afghanistan  1992    41.7
10 Afghanistan  1997    41.8
# … with 1,694 more rows

> select(gm, 2:4)

# A tibble: 1,704 x 3
    year      pop continent
   <int>    <dbl> <fct>    
 1  1952  8425333 Asia     
 2  1957  9240934 Asia     
 3  1962 10267083 Asia     
 4  1967 11537966 Asia     
 5  1972 13079460 Asia     
 6  1977 14880372 Asia     
 7  1982 12881816 Asia     
 8  1987 13867957 Asia     
 9  1992 16317921 Asia     
10  1997 22227415 Asia     
# … with 1,694 more rows

> select(gm, -c(2,3,4))

# A tibble: 1,704 x 3
   country     lifeExp gdpPercap
   <fct>         <dbl>     <dbl>
 1 Afghanistan    28.8      779.
 2 Afghanistan    30.3      821.
 3 Afghanistan    32.0      853.
 4 Afghanistan    34.0      836.
 5 Afghanistan    36.1      740.
 6 Afghanistan    38.4      786.
 7 Afghanistan    39.9      978.
 8 Afghanistan    40.8      852.
 9 Afghanistan    41.7      649.
10 Afghanistan    41.8      635.
# … with 1,694 more rows

> select(gm, starts_with("c"))

# A tibble: 1,704 x 2
   country     continent
   <fct>       <fct>    
 1 Afghanistan Asia     
 2 Afghanistan Asia     
 3 Afghanistan Asia     
 4 Afghanistan Asia     
 5 Afghanistan Asia     
 6 Afghanistan Asia     
 7 Afghanistan Asia     
 8 Afghanistan Asia     
 9 Afghanistan Asia     
10 Afghanistan Asia     
# … with 1,694 more rows

Notice a few things. Variables can be selected by name or column number. As usual, a negative sign tells R to leave something out. And there are special functions such as starts_with that provide ways to match part of a variable’s name.

1.39.4 Practice Problem

Use the contains() function to select only the columns that contain a c

1.39.5 Pipes

Consider selecting the country, year, and population for countries in Asia or Europe. One possibility is to nest a filter() function inside a select() function.

> select(filter(gm, continent %in% c("Asia", "Europe")), country, year, pop)

# A tibble: 756 x 3
   country      year      pop
   <fct>       <int>    <dbl>
 1 Afghanistan  1952  8425333
 2 Afghanistan  1957  9240934
 3 Afghanistan  1962 10267083
 4 Afghanistan  1967 11537966
 5 Afghanistan  1972 13079460
 6 Afghanistan  1977 14880372
 7 Afghanistan  1982 12881816
 8 Afghanistan  1987 13867957
 9 Afghanistan  1992 16317921
10 Afghanistan  1997 22227415
# … with 746 more rows

Even a two-step process like this becomes hard to follow in this nested form, and often we will want to perform more than two operations. There is a nice feature in dplyr that allows us to “feed” results of one function into the first argument of a subsequent function. Another way of saying this is that we are “piping” the results into another function. The %>% operator does the piping. Here we again restrict attention to country, year, and population for countries in Asia or Europe36.

> gm %>% 
+   filter(continent %in% c("Asia", "Europe")) %>% 
+   select(country, year, pop)

# A tibble: 756 x 3
   country      year      pop
   <fct>       <int>    <dbl>
 1 Afghanistan  1952  8425333
 2 Afghanistan  1957  9240934
 3 Afghanistan  1962 10267083
 4 Afghanistan  1967 11537966
 5 Afghanistan  1972 13079460
 6 Afghanistan  1977 14880372
 7 Afghanistan  1982 12881816
 8 Afghanistan  1987 13867957
 9 Afghanistan  1992 16317921
10 Afghanistan  1997 22227415
# … with 746 more rows
…
Possibly arranging the data by year and then country would be desired. The arrange() function makes this easy. We will again use pipes.

> gm %>% arrange(year, country)

# A tibble: 1,704 x 6
   country     year     pop continent lifeExp gdpPercap
   <fct>      <int>   <dbl> <fct>       <dbl>     <dbl>
 1 Afghanist…  1952  8.43e6 Asia         28.8      779.
 2 Albania     1952  1.28e6 Europe       55.2     1601.
 3 Algeria     1952  9.28e6 Africa       43.1     2449.
 4 Angola      1952  4.23e6 Africa       30.0     3521.
 5 Argentina   1952  1.79e7 Americas     62.5     5911.
 6 Australia   1952  8.69e6 Oceania      69.1    10040.
 7 Austria     1952  6.93e6 Europe       66.8     6137.
 8 Bahrain     1952  1.20e5 Asia         50.9     9867.
 9 Bangladesh  1952  4.69e7 Asia         37.5      684.
10 Belgium     1952  8.73e6 Europe       68       8343.
# … with 1,694 more rows
…
1.39.10 Creating New Variables

The $ notation provides a simple way to create new variables in a data frame. The mutate() function provides another, sometimes cleaner way to do this. We will use mutate() along with the lag() function to investigate changes in life expectancy over five years for the gapminder data. We’ll do this in a few steps. First, we create a variable that measures the change in life expectancy and remove the population and GDP variables that are not of interest. We have to be careful to first group by country, since we want to calculate the change in life expectancy by country.

> gm %>% 
+   group_by(country) %>% 
+   mutate(changeLifeExp = lifeExp - lag(lifeExp, order_by = year)) %>% 
+   select(-c(population, gdpPercap))

# A tibble: 1,704 x 5
# Groups:   country [142]
   country      year continent lifeExp changeLifeExp
   <fct>       <int> <fct>       <dbl>         <dbl>
 1 Afghanistan  1952 Asia         28.8       NA     
 2 Afghanistan  1957 Asia         30.3        1.53  
 3 Afghanistan  1962 Asia         32.0        1.66  
 4 Afghanistan  1967 Asia         34.0        2.02  
 5 Afghanistan  1972 Asia         36.1        2.07  
 6 Afghanistan  1977 Asia         38.4        2.35  
 7 Afghanistan  1982 Asia         39.9        1.42  
 8 Afghanistan  1987 Asia         40.8        0.968 
 9 Afghanistan  1992 Asia         41.7        0.852 
10 Afghanistan  1997 Asia         41.8        0.0890
# … with 1,694 more rows

Next, summarize by computing the largest drop in life expectancy.

> gm %>% 
+   group_by(country) %>% 
+   mutate(changeLifeExp = lifeExp - lag(lifeExp, order_by = year)) %>% 
+   select(-c(population, gdpPercap)) %>% 
+   summarize(largestDropLifeExp = min(changeLifeExp))

# A tibble: 142 x 2
   country     largestDropLifeExp
   <fct>                    <dbl>
 1 Afghanistan                 NA
 2 Albania                     NA
 3 Algeria                     NA
 4 Angola                      NA
 5 Argentina                   NA
 6 Australia                   NA
 7 Austria                     NA
 8 Bahrain                     NA
 9 Bangladesh                  NA
10 Belgium                     NA
# … with 132 more rows

Oops. We forgot that since we don’t have data from before 1952, the first drop will be NA. Let’s try again.

> gm %>% 
+   group_by(country) %>% 
+   mutate(changeLifeExp = lifeExp - lag(lifeExp, order_by = year)) %>% 
+   select(-c(population, gdpPercap)) %>% 
+   summarize(largestDropLifeExp = min(changeLifeExp, na.rm = TRUE))

# A tibble: 142 x 2
   country     largestDropLifeExp
   <fct>                    <dbl>
 1 Afghanistan             0.0890
 2 Albania                -0.419 
 3 Algeria                 1.31  
 4 Angola                 -0.036 
 5 Argentina               0.492 
 6 Australia               0.170 
 7 Austria                 0.490 
 8 Bahrain                 0.84  
 9 Bangladesh              1.67  
10 Belgium                 0.5   
# … with 132 more rows

That’s not quite what we wanted. We could arrange the results by the life expectancy drop, but it would be good to have both the continent and year printed out also. So we’ll take a slightly different approach, by arranging the results in increasing order.

> gm %>% 
+   group_by(country) %>% 
+   mutate(changeLifeExp = lifeExp - lag(lifeExp, order_by = year)) %>% 
+   select(-c(population, gdpPercap)) %>% 
+   arrange(changeLifeExp)

# A tibble: 1,704 x 5
# Groups:   country [142]
   country       year continent lifeExp changeLifeExp
   <fct>        <int> <fct>       <dbl>         <dbl>
 1 Rwanda        1992 Africa       23.6        -20.4 
 2 Zimbabwe      1997 Africa       46.8        -13.6 
 3 Lesotho       2002 Africa       44.6        -11.0 
 4 Swaziland     2002 Africa       43.9        -10.4 
 5 Botswana      1997 Africa       52.6        -10.2 
 6 Cambodia      1977 Asia         31.2         -9.10
 7 Namibia       2002 Africa       51.5         -7.43
 8 South Africa  2002 Africa       53.4         -6.87
 9 Zimbabwe      2002 Africa       40.0         -6.82
10 China         1962 Asia         44.5         -6.05
# … with 1,694 more rows

That’s still not quite right. Because the data are grouped by country, R did the ordering within group. If we want to see the largest drops overall, we need to remove the grouping.

> gm %>% 
+   group_by(country) %>% 
+   mutate(changeLifeExp = lifeExp - lag(lifeExp, order_by = year)) %>% 
+   select(-c(population, gdpPercap)) %>% 
+   ungroup() %>% 
+   arrange(changeLifeExp) %>% 
+   print(n=20)

# A tibble: 1,704 x 5
   country       year continent lifeExp changeLifeExp
   <fct>        <int> <fct>       <dbl>         <dbl>
 1 Rwanda        1992 Africa       23.6        -20.4 
 2 Zimbabwe      1997 Africa       46.8        -13.6 
 3 Lesotho       2002 Africa       44.6        -11.0 
 4 Swaziland     2002 Africa       43.9        -10.4 
 5 Botswana      1997 Africa       52.6        -10.2 
 6 Cambodia      1977 Asia         31.2         -9.10
 7 Namibia       2002 Africa       51.5         -7.43
 8 South Africa  2002 Africa       53.4         -6.87
 9 Zimbabwe      2002 Africa       40.0         -6.82
10 China         1962 Asia         44.5         -6.05
11 Botswana      2002 Africa       46.6         -5.92
12 Zambia        1997 Africa       40.2         -5.86
13 Iraq          1992 Asia         59.5         -5.58
14 Liberia       1992 Africa       40.8         -5.23
15 Cambodia      1972 Asia         40.3         -5.10
16 Kenya         1997 Africa       54.4         -4.88
17 Somalia       1992 Africa       39.7         -4.84
18 Zambia        1992 Africa       46.1         -4.72
19 Swaziland     2007 Africa       39.6         -4.26
20 Uganda        1997 Africa       44.6         -4.25
# … with 1,684 more rows
…
There is something subtle and easy to miss in the code above. Notice the aes function arguments in geom_points take geographic longitude and latitude, x and y respectively, from the points data frame (but recall easting and northing were in UTM zone 19). This works because we applied spTransform to reproject the points SpatialPointsDataFrame to geographic coordinates. sp then replaces the values in easting and northing columns with the reprojected coordinate values when converting a SpatialPointsDataFrame to a data frame via as.data.frame().

Foresters use the inventory plot measurements to estimate forest variables within management units, e.g., the average or total management unit biomass. Next we’ll make a plot with management unit polygons colored by average biomass_mg_ha.

> mu.bio <- plots@data %>% group_by(mu_id) %>% 
+     summarize(biomass_mu = mean(biomass_mg_ha))
> print(mu.bio)

# A tibble: 33 x 2
   mu_id biomass_mu
   <chr>      <dbl>
 1 C12        124. 
 2 C15         49.9
 3 C16        128. 
 4 C17        112. 
 5 C20        121. 
 6 C21        134. 
 7 C22         65.2
 8 C23A       108. 
 9 C23B       153. 
10 C24        126. 
# … with 23 more rows
…
