FOR/STT 875, Exercise 8
…
Challenge Question

This question will not be graded and is provided for additional practice building your R skills. This is a challenge question, and thus not all material has been (or will be) covered.

In this challenge question, we simply provide two additional examples to practice converting data sets between long and wide format. This is an extremely useful data manipulation technique provided by R that can greatly save time and reduce any errors if such a task was attempted in Excel. Hopefully after practicing this task a bit more you will become fully convinced to do such data manipulation tasks in R rather than in Excel.

Challenge Question 1: The fish_encounters data set is currently in long format. The dataset is contained in the tidyr package. Use the help function to learn about this data set, convert it into wide format, convert it back into long format, and compare your result to the original.

fish.wide <- fish_encounters %>%
  pivot_wider(names_from = station, values_from = seen)
fish.long <- fish.wide %>%
  pivot_longer(cols = -fish, names_to = 'station', values_to = 'seen')
fish.long

## # A tibble: 209 x 3
##    fish  station  seen
##    <fct> <chr>   <int>
##  1 4842  Release     1
##  2 4842  I80_1       1
##  3 4842  Lisbon      1
##  4 4842  Rstr        1
##  5 4842  Base_TD     1
##  6 4842  BCE         1
##  7 4842  BCW         1
##  8 4842  BCE2        1
##  9 4842  BCW2        1
## 10 4842  MAE         1
## #  with 199 more rows

fish_encounters

## # A tibble: 114 x 3
##    fish  station  seen
##    <fct> <fct>   <int>
##  1 4842  Release     1
##  2 4842  I80_1       1
##  3 4842  Lisbon      1
##  4 4842  Rstr        1
##  5 4842  Base_TD     1
##  6 4842  BCE         1
##  7 4842  BCW         1
##  8 4842  BCE2        1
##  9 4842  BCW2        1
## 10 4842  MAE         1
## #  with 104 more rows
…
These data are from the 2017 American Community Survey. The GEOID and NAME columns serve to identify the state the data come from. The variable gives the name of the variable that is estimated. The estimate for that value is estimate and the margin of error around that estimate is the moe column. Here, we have multiple values (i.e., estimate and moe) that correspond to each state. Convert these data into wide format. Your final data set should have 52 rows and 6 colums, where each row is a state (includes the District of Columbia and Puerto Rico, hence the 52). The names of the columns should be as follows: GEOID, NAME, estimate.income, estimate.rent, moe.income, moe.rent. You will need to use the names_sep argument, and supply a vector of columns to the values_from argument instead of a single column.

us_rent_income %>%
  pivot_wider(
    names_from = variable,
    names_sep = ".",
    values_from = c(estimate, moe)
  )

## # A tibble: 52 x 6
##    GEOID NAME                 estimate.income estimate.rent moe.income moe.rent
##    <chr> <chr>                          <dbl>         <dbl>      <dbl>    <dbl>
##  1 01    Alabama                        24476           747        136        3
##  2 02    Alaska                         32940          1200        508       13
##  3 04    Arizona                        27517           972        148        4
##  4 05    Arkansas                       23789           709        165        5
##  5 06    California                     29454          1358        109        3
##  6 08    Colorado                       32401          1125        109        5
##  7 09    Connecticut                    35326          1123        195        5
##  8 10    Delaware                       31560          1076        247       10
##  9 11    District of Columbia           43198          1424        681       17
## 10 12    Florida                        25952          1077         70        3
## #  with 42 more rows
…
